<?xml version="1.0" encoding="utf-8"?>
<!-- Generator: Adobe Illustrator 16.0.0, SVG Export Plug-In . SVG Version: 6.00 Build 0)  -->
<!DOCTYPE svg PUBLIC "-//W3C//DTD SVG 1.1//EN" "http://www.w3.org/Graphics/SVG/1.1/DTD/svg11.dtd">
<svg version="1.1" id="Layer_1" xmlns="http://www.w3.org/2000/svg" xmlns:xlink="http://www.w3.org/1999/xlink" x="0px" y="0px"
	 width="48px" height="32px" viewBox="0 0 48 32" enable-background="new 0 0 48 32" xml:space="preserve">
<g>
	<path fill="#DFE3E8" d="M4,0h40c2.209,0,4,1.791,4,4v24c0,2.209-1.791,4-4,4H4c-2.209,0-4-1.791-4-4V4C0,1.791,1.791,0,4,0"/>
	<path fill="#263E80" d="M20.34,25.32l0.351-2.201h-0.78h-3.68L18.79,6.86c0.007-0.05,0.03-0.096,0.07-0.13
		C18.9,6.699,18.949,6.682,19,6.68h6.21c2.069,0,3.49,0.43,4.24,1.28c0.331,0.357,0.563,0.795,0.67,1.27
		c0.115,0.578,0.115,1.173,0,1.75v0.5l0.35,0.2c0.266,0.133,0.507,0.312,0.71,0.53c0.306,0.369,0.503,0.816,0.57,1.29
		c0.075,0.62,0.048,1.249-0.08,1.86c-0.132,0.743-0.393,1.457-0.77,2.11c-0.306,0.524-0.718,0.978-1.21,1.33
		c-0.497,0.338-1.048,0.585-1.631,0.729c-0.653,0.166-1.325,0.246-2,0.24h-0.49c-0.343,0-0.676,0.12-0.939,0.34
		c-0.267,0.225-0.439,0.537-0.49,0.881v0.199l-0.61,3.881v0.149c0.008,0.026,0.008,0.054,0,0.08h-0.06L20.34,25.32z"/>
	<path fill="#1C9AD6" d="M30.8,11.08l-0.06,0.37c-0.82,4.2-3.63,5.66-7.211,5.66H21.71c-0.438-0.001-0.812,0.317-0.88,0.75
		l-0.93,5.92l-0.271,1.68c-0.021,0.136,0.019,0.271,0.106,0.375c0.089,0.103,0.218,0.163,0.354,0.165h3.24
		c0.384-0.001,0.711-0.279,0.77-0.66v-0.16l0.61-3.869V21.1c0.055-0.377,0.378-0.658,0.76-0.66H26c3.13,0,5.59-1.27,6.3-5
		c0.385-1.275,0.147-2.656-0.64-3.73C31.41,11.454,31.119,11.241,30.8,11.08"/>
	<path fill="#242F65" d="M29.94,10.74l-0.381-0.1l-0.42-0.08c-0.529-0.079-1.064-0.116-1.6-0.11h-4.88
		c-0.115-0.003-0.228,0.02-0.33,0.07c-0.232,0.108-0.394,0.326-0.43,0.58l-1,6.57v0.19c0.068-0.433,0.441-0.751,0.88-0.75H23.6
		c3.58,0,6.391-1.46,7.21-5.66l0.061-0.37c-0.216-0.111-0.439-0.205-0.67-0.28L29.94,10.74z"/>
	<path fill="#263E80" d="M21.9,11.1c0.036-0.253,0.197-0.472,0.43-0.58c0.103-0.049,0.217-0.073,0.33-0.07h4.88
		c0.535-0.006,1.07,0.031,1.6,0.11l0.42,0.08l0.381,0.1l0.188,0.06c0.231,0.075,0.456,0.169,0.671,0.28
		c0.325-1.25,0.027-2.579-0.8-3.57C29,6.45,27.36,6,25.22,6H19c-0.438-0.001-0.812,0.317-0.88,0.75l-2.59,16.41
		c-0.024,0.154,0.021,0.313,0.123,0.432c0.101,0.118,0.25,0.188,0.406,0.188H19.9l1-6.11L21.9,11.1z"/>
</g>
</svg>
