<svg xmlns="http://www.w3.org/2000/svg" width="170.077" height="698.492" viewBox="0 0 170.077 698.492">
  <path id="Path_131" data-name="Path 131" d="M-221.591,973.4l-85.039-349.246h-85.038V1322.65h85.038L-221.591,973.4" transform="translate(391.668 -624.158)" fill="#16c4c4"/>
</svg>
