<?xml version="1.0" encoding="utf-8"?>
<!-- Generator: Adobe Illustrator 16.0.0, SVG Export Plug-In . SVG Version: 6.00 Build 0)  -->
<!DOCTYPE svg PUBLIC "-//W3C//DTD SVG 1.1//EN" "http://www.w3.org/Graphics/SVG/1.1/DTD/svg11.dtd">
<svg version="1.1" id="Layer_1" xmlns="http://www.w3.org/2000/svg" xmlns:xlink="http://www.w3.org/1999/xlink" x="0px" y="0px"
	 width="48px" height="32px" viewBox="0 0 48 32" enable-background="new 0 0 48 32" xml:space="preserve">
<g>
	<path fill="#DFE3E8" d="M4,0h40c2.209,0,4,1.791,4,4v24c0,2.209-1.791,4-4,4H4c-2.209,0-4-1.791-4-4V4C0,1.791,1.791,0,4,0"/>
	<g opacity="0">
		<g>
			<defs>
				<rect id="SVGID_1_" x="4.65" y="3.2" width="38.71" height="25.6"/>
			</defs>
			<clipPath id="SVGID_2_">
				<use xlink:href="#SVGID_1_"  overflow="visible"/>
			</clipPath>
			<rect x="4.65" y="3.2" clip-path="url(#SVGID_2_)" fill="#FFFFFF" width="38.71" height="25.6"/>
		</g>
	</g>
	<rect x="18.9" y="7.66" fill="#0779BE" width="10.21" height="16.68"/>
	<path fill="#0C68B2" d="M20,16c-0.017-3.247,1.458-6.321,4-8.34C19.65,4.239,13.402,4.736,9.646,8.801
		c-3.754,4.065-3.754,10.333,0,14.398C13.402,27.264,19.65,27.762,24,24.34C21.458,22.32,19.983,19.247,20,16"/>
	<path fill="#15A0DB" d="M40.14,22.57v-0.34h0.15v-0.07h-0.35v0.07h0.14v0.34H40.14z M40.82,22.57v-0.41H40.72l-0.12,0.289
		l-0.13-0.289h-0.1v0.41h0.07V22.26l0.119,0.27h0.08l0.11-0.27v0.311H40.82z"/>
	<path fill="#15A0DB" d="M41.16,16c-0.003,4.061-2.321,7.762-5.973,9.536c-3.65,1.774-7.994,1.31-11.188-1.196
		c4.6-3.622,5.396-10.286,1.78-14.89C25.262,8.783,24.664,8.182,24,7.66c3.193-2.506,7.537-2.97,11.188-1.196
		C38.839,8.239,41.157,11.94,41.16,16"/>
</g>
</svg>
