<?xml version="1.0" encoding="utf-8"?>
<!-- Generator: Adobe Illustrator 16.0.0, SVG Export Plug-In . SVG Version: 6.00 Build 0)  -->
<!DOCTYPE svg PUBLIC "-//W3C//DTD SVG 1.1//EN" "http://www.w3.org/Graphics/SVG/1.1/DTD/svg11.dtd">
<svg version="1.1" id="Layer_1" xmlns="http://www.w3.org/2000/svg" xmlns:xlink="http://www.w3.org/1999/xlink" x="0px" y="0px"
	 width="48px" height="32px" viewBox="0 0 48 32" enable-background="new 0 0 48 32" xml:space="preserve">
<g>
	<path fill="#DFE3E8" d="M4,0h40c2.209,0,4,1.791,4,4v24c0,2.209-1.791,4-4,4H4c-2.209,0-4-1.791-4-4V4C0,1.791,1.791,0,4,0"/>
	<rect x="8.03" y="10.41" fill="#FFFFFF" width="9.85" height="13.54"/>
	<rect x="19.09" y="10.41" fill="#FFFFFF" width="9.87" height="11.9"/>
	<rect x="30.14" y="10.13" fill="#FFFFFF" width="9.852" height="13.021"/>
	<path fill="#40A548" d="M32.1,18.57h2.311h0.28c0.477-0.092,0.818-0.515,0.81-1c-0.017-0.478-0.348-0.884-0.81-1
		c-0.094-0.01-0.188-0.01-0.28,0H32.1V18.57z"/>
	<path fill="#40A548" d="M34.14,4c-2.209,0-4,1.791-4,4v4.15h5.649c0.134-0.016,0.268-0.016,0.401,0c1.27,0.06,2.22,0.72,2.22,1.86
		c-0.026,1-0.831,1.804-1.831,1.83c1.301,0.09,2.29,0.81,2.29,1.94c0,1.13-1.1,2-2.549,2h-6.201V28H36c2.209,0,4-1.791,4-4V4H34.14z
		"/>
	<path fill="#40A548" d="M35.22,14.31c0.036-0.495-0.318-0.933-0.81-1h-0.22H32.1v1.93h2.091c0.072,0.011,0.146,0.011,0.22,0
		c0.47-0.061,0.819-0.466,0.81-0.94V14.31z"/>
	<path fill="#1168AF" d="M12,4C9.791,4,8,5.791,8,8v9.87c1.066,0.56,2.246,0.866,3.45,0.899c0.561,0.065,1.121-0.119,1.533-0.504
		c0.413-0.386,0.634-0.933,0.606-1.496v-4.64H17v4.64c0,1.8-1.12,3.27-4.92,3.27c-1.375-0.001-2.745-0.169-4.08-0.5V28h5.87
		c2.209,0,4-1.791,4-4V4H12z"/>
	<path fill="#BE2335" d="M23.09,4c-2.209,0-4,1.791-4,4v5.23c1-0.86,2.771-1.41,5.601-1.27c1.059,0.063,2.11,0.224,3.14,0.48v1.69
		c-0.928-0.498-1.95-0.798-3-0.88c-2.15-0.15-3.45,0.9-3.45,2.75c0,1.85,1.3,2.92,3.45,2.75c1.048-0.096,2.066-0.395,3-0.88v1.69
		c-1.029,0.258-2.081,0.418-3.14,0.479c-2.83,0.14-4.591-0.41-5.601-1.271V28H25c2.209,0,4-1.791,4-4V4H23.09z"/>
</g>
</svg>
